{
    "groups": {
        "mode": { "fg": "surface0", "bg": "green", "attrs": ["bold"] },
        "visual_range": { "fg": "surface0", "bg": "yellow" },
        "branch": { "fg": "text", "bg": "surface1" },
        "file_scheme": { "fg": "text", "bg": "surface1" },
        "file_directory": "file_scheme",
        "file_name": "file_scheme",
        "file_vcs_status": { "fg": "yellow", "bg": "surface1" },
        "modified_indicator": "file_vcs_status",
        "background": { "fg": "text", "bg": "crust" },

        "file_format": { "fg": "text", "bg": "surface0" },
        "line_percent": { "fg": "surface0", "bg": "overlay1" },
        "line_current": { "fg": "surface0", "bg": "overlay2" },
        "line_current_symbol": "line_current",
        "virtcol_current": "line_current"
    },
    "mode_translations": {
        "i": {
            "groups": {
                "mode": { "fg": "surface0", "bg": "sky", "attrs": ["bold"] }
            }
        },
        "v": {
            "groups": {
                "mode": { "fg": "surface0", "bg": "yellow", "attrs": ["bold"] }
            }
        },
        "V": {
            "groups": {
                "mode": { "fg": "surface0", "bg": "yellow", "attrs": ["bold"] }
            }
        },
        "^V": {
            "groups": {
                "mode": { "fg": "surface0", "bg": "yellow", "attrs": ["bold"] }
            }
        }
    }

}
